26

8 7
18
6 1
1 2
4 5
4 5
4 2
4 5
2 1
6 6
6 3
5 0
6 5
2 0
2 1
0 3
2 1
7 3
2 2
7 4
22 6

7 1
9
3 0
5 0
5 0
3 0
3 0
5 0
1 0
6 0
3 0
20 10

12 11
4
10 9
5 1
3 3
6 4
9 2

4 9
18
3 0
0 6
3 6
0 1
3 0
3 8
0 7
0 2
0 4
1 0
1 3
3 1
1 6
3 5
3 3
1 1
0 4
1 5
14 10

3 11
17
1 3
1 3
2 7
2 2
0 3
0 5
1 9
1 7
0 8
1 7
1 10
2 0
1 3
1 5
1 10
1 5
1 6
5 15

13 6
12
9 3
11 0
5 0
11 0
8 0
3 5
8 1
1 1
9 1
5 2
12 1
5 5
29 9

1 16
14
0 15
0 3
0 2
0 15
0 10
0 13
0 10
0 10
0 11
0 15
0 12
0 0
0 10
0 5
27 12

6 1
11
0 0
1 0
4 0
4 0
1 0
1 0
5 0
5 0
4 0
0 0
4 0
6 15

5 12
8
0 5
0 10
4 4
0 7
3 8
0 2
3 4
4 8
27 12

11 9
7
6 5
7 6
5 6
8 7
8 8
10 0
5 1
22 12

7 9
15
0 8
5 3
2 3
0 3
0 3
3 1
2 4
3 1
3 3
2 5
4 3
5 3
0 5
1 4
5 6
30 6

8 10
15
0 1
1 9
2 9
0 3
1 2
4 6
2 4
5 9
2 7
3 7
5 4
4 0
6 1
0 4
5 1
7 5

20 20
7
8 18
1 11
0 10
11 1
4 7
9 7
2 13
7 7

17 9
3
11 1
3 2
15 8
14 7

8 7
12
1 3
4 2
5 0
2 0
1 6
5 6
1 6
2 3
3 2
4 4
6 5
6 6
21 7

2 9
8
1 7
1 4
0 6
1 4
0 7
0 3
0 4
0 1
28 6

4 3
20
0 0
0 2
1 2
2 1
0 0
2 2
3 1
0 2
2 1
1 1
1 2
0 0
2 0
0 0
0 2
1 2
0 1
3 0
3 1
0 2
30 13

12 19
5
4 9
0 5
11 12
2 17
7 17
23 13

9 20
1
2 14
7 11

6 9
14
0 4
1 4
5 6
4 0
4 4
3 8
1 8
5 8
0 5
5 7
3 0
1 0
4 2
1 1
10 6

6 1
17
4 0
2 0
4 0
1 0
1 0
4 0
5 0
4 0
3 0
2 0
3 0
4 0
0 0
0 0
1 0
4 0
2 0
24 1

12 12
14
10 6
6 10
5 5
1 11
8 1
1 8
3 8
6 10
4 3
6 9
3 2
3 4
5 4
1 3
13 13

4 18
18
0 8
3 6
1 1
3 11
1 2
1 4
3 17
1 14
3 8
3 17
3 8
2 15
1 7
2 12
0 8
1 6
2 7
1 5
26 2

6 16
6
3 0
5 10
3 8
3 7
0 15
4 13
4 12

11 4
16
8 3
2 1
8 0
5 3
3 3
7 3
9 0
4 3
1 0
6 2
4 3
3 3
5 3
4 1
8 2
6 2
12 15

17 3
11
10 2
1 1
8 1
12 1
14 1
4 2
12 2
10 0
6 2
13 0
9 1
15 6
