*** Life<FredkinCell> 18x3 ***

Generation = 0, Population = 11.
-0-
0--
---
--0
--0
0--
-0-
---
---
-00
0--
---
---
---
---
--0
---
--0

Generation = 9, Population = 26.
-2-
-2-
11-
123
3-2
---
---
-4-
--3
-1-
1-1
--0
111
-12
---
-2-
-00
111

*** Life<FredkinCell> 20x41 ***

Generation = 0, Population = 8.
-----------------0-----------------------
--------------0--------------------------
-----------------------------------------
-----------------------------------------
-0---------------------------------------
-----------------------------------------
-----------------------------------------
----0------------------------------------
-------------0---------------------------
-----------------------------------------
-----------------------------------------
-----------------------------------------
-----------------------------------0-0---
-----------------------------------------
-----------------------------------------
-----------------------------------------
-----------------------------------------
--0--------------------------------------
-----------------------------------------
-----------------------------------------

*** Life<FredkinCell> 47x29 ***

Generation = 0, Population = 9.
-----------------------------
-----------------------------
---------------------0-------
-----------------------------
-----------------------------
-----------------------------
-----------------------------
-----------------------------
-----------------------------
-----------------------------
-----------------------------
-----------------------------
-----------------------------
-----------------------------
-----------------------------
-----------------------------
-----------------------------
----------0------------------
-----------------------------
--0--------------------------
-----------------------------
-----------------------------
-----------------------------
-----------------------------
-----------------------------
--------0--------------------
-----------------------------
-----------------------------
-----------------------------
-----------------------------
-----------------------------
-----------------------------
-----------------------------
-------------------0---------
-----------------------------
-----------------------------
-----------------------------
-----------------------------
-----------------------------
-----------------------0-----
-----------------------------
------------0----------------
------------------------0----
-------------------0---------
-----------------------------
-----------------------------
-----------------------------

*** Life<FredkinCell> 8x11 ***

Generation = 0, Population = 21.
--00--0--0-
----------0
-00-0-0-00-
-0---0-----
0-0----0---
-0--0---0--
---0-------
----------0

Generation = 3, Population = 40.
--13------0
---0-1--201
-0-00--03-1
03----02201
0-020-20100
-11----00--
1----1--0--
-1-0---0---

Generation = 6, Population = 48.
1---13-20-3
--01020--1-
13-1-0--42-
1--0-01---4
3-03-----3-
0---2-00300
-1102--03-0
02100--0--0

Generation = 9, Population = 51.
2--324033-4
023--21--24
2622--2--3-
1-0-102-414
-1--2-2---2
--2032-1-3-
-2215101--0
----10--00-

Generation = 12, Population = 51.
5-4627-360-
-3--234--3-
-7-3-0-1631
441--0--5--
4-3--25--73
2-----2-442
-3-26102330
1-3-1-0-31-

Generation = 15, Population = 50.
6177-71-6-6
---2--7---4
4-24-024764
57-011538--
-16-4-601--
-4--34----3
--43-2123--
1---4--3412

*** Life<FredkinCell> 37x6 ***

Generation = 0, Population = 8.
------
------
------
------
-----0
0-----
0-----
------
------
------
------
------
------
------
0-0---
------
0-----
------
------
------
------
------
------
------
------
------
------
00----
------
------
------
------
------
------
------
------
------

*** Life<FredkinCell> 5x17 ***

Generation = 0, Population = 25.
-0------0---0-0-0
----00---0---00-0
-----------0--00-
---00-----0---0--
0--0-0---0000----

*** Life<FredkinCell> 48x24 ***

Generation = 0, Population = 29.
------------------------
---------0--------------
------------------------
----0------------00-----
-------0----------------
------0-----------------
-----------------0------
-----0------------------
------------------------
----------0-------------
-----0------------------
------------------------
-----------------------0
--0---------------------
------------------------
------------------------
------------------------
------------------------
----0-------------------
------------0-----------
--------------0---------
------------------------
------------------------
---------------------0--
------------------------
------------------------
------------------------
------0---------0-------
---------0--------------
------------------------
------------------------
------------------------
------------------------
0----------------0------
---------------------0--
----0-------------------
------------------------
------------------------
------------------------
------------------------
------------------------
--0-------------0-------
---------------0--------
--------------------0---
----------------------0-
------------------------
------------------------
---------------0--------

*** Life<FredkinCell> 18x15 ***

Generation = 0, Population = 8.
------0--------
------0--------
--------0------
---------------
------0--------
---------------
-------0-------
---------------
0--------------
---------------
---------------
---------------
---------------
---------------
---------------
----------0----
--0------------
---------------

Generation = 9, Population = 86.
1-----5-2----01
10----10-----0-
30---0-2-----01
------2-0------
-0----32-0---0-
0----0302-----0
-----140--0----
--0---1-00-0---
-0-1--12-00----
--0--0-0-------
------20-0-----
--0---0-0------
-0-0-0-0--0----
--0---10-0-0---
--0---2-0-0-0--
00-00--0--00-0-
-000-0---0-00--
0---0-----0----

*** Life<FredkinCell> 49x31 ***

Generation = 0, Population = 22.
-------------------------------
-------------------------------
-------------------------------
-------------------------------
-------------------------------
-------------------------------
-------------------------------
----------------------------0--
-------------------------------
--------------0----------------
-------------------------------
-------------------------------
----------------------------0--
--0----------------------------
-------------------------------
-------------------------------
-------------------------------
-------------------------------
-------------------------------
-------------------------------
-------------------------------
-------------------------------
-------------------------------
-------------------------------
-------------------------------
-------------------------------
-0-----------------------------
-------------------------------
------------0------------------
-------------------------------
-------------------------------
-------------------------------
-------------------------------
-------------------------------
--------------00-------------0-
----------------------0--------
-------------------------------
-----------------------0--0----
-0-----------------------------
----0-------------0------------
---------0-------------0------0
----------------------------0--
-------------------------------
-------------------------------
-------------------------------
-----------0-------------------
--0----------------------------
-------------------------------
---------------0---------------

Generation = 4, Population = 83.
-------------------------------
-------------------------------
-------------------------------
----------------------------0--
-------------------------------
--------------0----------------
-------------------------------
------------------------0-----0
----------------------------1--
--0-------0-------0------------
-------------------------------
----------------------------1--
------------------------0-----0
0-----0-------0----------------
-------------------------------
-------------------------------
----------------------------0--
--0----------------------------
-------------------------------
-------------------------------
-------------------------------
-------------------------------
-0-----------------------------
-------------------------------
------------0------------------
-------------------------------
-0---0-------------------------
-------------------------------
--------0-------0--------------
-------------------------------
-0------------00-------------0-
----------------------0--------
------------0------------------
-----------------------1--0----
-0--------01------10-----0---0-
----0---------------------0----
---------0-------------1------1
-------------------1--3----10-1
-0---0--------00-------------1-
0-------0-----0----------------
-----0-------0-----0------113--
-----------1-----------10-0---1
-00----------------------------
----0-------------0------------
---------1-----0-------0------0
-------0-------1------------0--
0-----0--------0---------------
-------------------------------
--0--------1-------0-----------

*** Life<FredkinCell> 44x42 ***

Generation = 0, Population = 13.
------------------------------------------
------------------------------------------
-------------0----------------------------
------------------------------------------
------------------------------------------
------------------------------------------
------------------------------------------
------------------------------------------
------------------------------------------
--------------0---------------------------
--------------------------------------0---
------------------------------------------
------------------------------------------
-----------0------------------------------
------------------------------------------
------------------------------------------
------------------------------------------
------------------------------------------
------------------------------------------
------------------------------------------
------------------------------------------
------------------------------------------
------------------------------------------
------0-----------------------------------
------------------------------------------
------------------------------------------
----------------0---------0---------------
------------------------------------------
------------------------------------------
------------------------------------------
-----------------------0------------------
------------------------------------------
------------------------------------------
------------------------------------------
------------------------------------------
------------------------------------------
------------------------------------------
----------0------------------0------------
------------------------------------0-----
-------------0----------------------------
------------------0-----------------------
------------------------------------------
------------------------------------------
------------------------------------------

*** Life<FredkinCell> 47x8 ***

Generation = 0, Population = 24.
--------
--------
-00-----
--------
-----0--
--0-----
------0-
--------
----0---
--------
0------0
--------
--------
-----0--
--------
---0----
--------
--------
-------0
--------
-0------
--------
0---0---
--------
--------
--------
0-------
--------
------0-
0--0----
--------
--------
0--0----
--------
0-------
--------
--------
--------
--------
--------
---00---
--------
0-------
--------
--------
--------
--------

*** Life<FredkinCell> 11x34 ***

Generation = 0, Population = 13.
----------------------------------
-------------------0-0------------
----0------------0----------------
0---------------------------------
----------------------------------
----------------00-------0------0-
---------------------------0-----0
-------------------------------0--
---------------------------------0
----------------------------------
----------------------------------

Generation = 2, Population = 45.
----0------------0----------------
0----------------1-0-0-0----------
--0---0--------0---1--------------
0-0-------------01-0-0---0------0-
----0------------1---------0-----0
0-------------01--10---0---1--01--
-------------------------1---0-1--
----------------00-------0---0--10
---------------------------0---1--
-------------------------------0--
---------------------------------0

*** Life<FredkinCell> 16x44 ***

Generation = 0, Population = 7.
--------------------------------------------
--------------------------------------------
--------------------0-----------------------
--------------------------------------------
-------0------------------------------------
---0----------------------------------------
------------------------------------0-------
-----------------------------0--------------
--------------------------------------------
--------------------------------------------
--------------------------------------------
--------------------------------------------
--------------------0-----------------------
--------------------------------------------
--------------------------------------------
--------------------------0-----------------

*** Life<FredkinCell> 18x33 ***

Generation = 0, Population = 29.
--------------------------------0
---------------------------------
------------0--------------------
-0----0------------------------0-
-0-----------------------0-------
--0---------0--------------------
----0----------0-----------------
----------------------------0----
--------0-------------0---------0
------------------------0-------0
--0------------------------------
---------------------0-----------
------------------0--------------
---------------------------------
----------0---0----------------0-
----0-----------------------00---
---------------------------------
----------------0-0------0-------

*** Life<FredkinCell> 18x20 ***

Generation = 0, Population = 19.
--------------------
---------0---0------
--------------------
--------------0-----
--------------------
-0------------------
--------------------
--------------0-----
-----------------0--
--------------------
-----------0--------
----0---------------
--0---0--0----------
-0-----------------0
0-----0-------------
----0---------------
----0---------------
------0----------0--

Generation = 12, Population = 131.
--0---1--0-0-0-----1
---------0-----2---2
0-----10-------1-3--
1-1-0-2-3-----3---2-
0-1-112--20--1-2-0--
------1--0---1-1---0
---01-----01-------1
1---5---0-1-0-0--1--
-12--12-2210-10--2-2
--2-11----20-----0--
3-----332-----30-0--
45--1---1---405-4---
-03--3----3-3023-301
----4-012-----2-----
---12-----3-2-----00
-54-32--400-2---2-0-
104--02-23--2-1-1--1
2-------032-1-1---0-

*** Life<FredkinCell> 45x19 ***

Generation = 0, Population = 14.
-------------------
----------0--------
-0-----------------
-------------------
-------------------
-------------------
-------------------
------------0------
-------------------
-------------------
-------0-----------
-------------------
----------------00-
-------------------
-------------------
-------------------
-------------------
------------------0
-------------------
-------------------
-------------------
---0---------------
-------------------
-------------------
-------------------
----0--------------
-------------------
-0--0--------------
-------------------
-------------------
-------------------
-------------------
-------------------
----0--------------
-------------------
-------------------
-------------------
-------------------
-------------------
-------------------
-------------------
-------------------
---------0---------
-------------------
-------------0-----

Generation = 5, Population = 150.
0-0---0---0---0----
-------0-0-0-0-0---
0-0-0-----0-0-0----
-0---0-----0-0-----
----------0-0------
-0-----0-0-0-------
0-0---0---0-----0--
-0-------0-----01--
--------0------0-10
---0-------0----00-
--0-0-----0--------
---0--------1----00
-----------0-21-13-
-------0----00----2
------0-0---------0
-------0--------00-
---0----------00-10
--0-0--------0--1--
---0----------0-0--
-------------------
----0--0----------0
---0-00-0--------0-
-0-----0----------0
0-01-0-------------
00-00---0----------
-11-0--0-0---------
-0-0-0-------------
122-1-00-0---------
00---0--0----------
-------------------
-0--0--------------
0-00-0-------------
00--0---0----------
-0-----0-0---------
0-------0----------
-------------------
----0--------------
---0-0---0---------
----0---0-0--------
---------0---0-----
------------0-0----
-----0-------0-----
----0-0------------
-----0-----------0-
----------------0-0

Generation = 10, Population = 167.
-----0-0-0---------
0---0-----------0-0
-0-0-0---0-0----00-
--0-------0-------0
---0-0-0-0----01--1
----0---0---0-----0
-0--------------11-
--0---0---------1--
-0-------------2---
----0---0---1---2--
---0----00----1--1-
---0------1-------1
-0----01--2-1---3--
-0---0------2------
--------00---10----
---00-------1-1----
-------0-----------
-00-1-0-0-0---1----
-----0---0------21-
--1-2-0---000------
-------0------01--1
----31---0---0-----
----------------00-
--112------00-----0
-------------------
1---110--00-0-0-0-0
-------------------
1-5-------110-0---0
-------------------
-01------0--0------
-------------------
--220-------0------
---------0---------
122---0---0---0----
-------0---0-0-----
---10-0-----0------
---------0-0-0-0---
-0--0--------------
---------0-0-0-0---
----0--------------
-0-----0---0-0---0-
--0---0------------
---0-0---0-----0-0-
----0--------------
-0-0-0-0-------0---

*** Life<FredkinCell> 26x26 ***

Generation = 0, Population = 12.
-------------0------------
--------------------------
----------0---------------
----0---------------------
--------------------------
--------------------------
--------------------------
-----------0-----------0--
--------------------------
--------------------------
--------------------------
--------------------------
---0----------------------
--------------------------
------------------0-------
--------------------------
--------------------------
--------------------------
--------------------------
--------------------------
---------0----------------
-----0--------------------
----0-----------0---------
--------------------------
----------------------0---
--------------------------

*** Life<FredkinCell> 37x29 ***

Generation = 0, Population = 16.
-----------------------------
-----------------------------
-----------------------------
-----------------0-----------
--------------0--------------
-----------------------------
--0--------------------------
-----------------------------
--0--------------------------
-0---------------------------
-----0-----------------------
--0-------------0------------
-----------------------------
-----------------------------
-----------------0-----------
-----------------------------
-----------------------------
----------------------0------
-----------------------------
------0----------------------
-----------------------------
-----------------------------
----0------------------------
-----------------------------
------------------------0----
-------------------------0---
-----------------------------
-----------------------------
----------0------------------
----------------------0------
-----------------------------
-----------------------------
-----------------------------
-----------------------------
-----------------------------
-----------------------------
-----------------------------

*** Life<FredkinCell> 48x5 ***

Generation = 0, Population = 26.
-----
-----
---0-
-0-0-
-----
-----
-----
-----
-----
-----
0----
-----
-----
-----
----0
-----
--0-0
--0--
-----
-----
-----
-0---
----0
0-0--
-----
-----
-----
--0--
---0-
-----
----0
-----
--00-
-----
0----
-----
-----
----0
0----
0----
0----
0--0-
--0--
-----
-----
-----
-----
--0--

*** Life<FredkinCell> 4x41 ***

Generation = 0, Population = 5.
----------------0------------------------
-------0---------------------------------
---------------------------------------0-
--------------------------00-------------

Generation = 15, Population = 80.
-0-0-0---0----1-10-----030-222-3--0--1010
------0-0-0--0--130---22-4-8-2---0-221-20
-0-0-----0-00--0-030-000021-21020-01--0--
0---0-0---001-1---53-23--57-53--214----42

*** Life<FredkinCell> 2x40 ***

Generation = 0, Population = 14.
-----------0-------------00-----00--0---
0-------00--0----------------0-0----0-0-

Generation = 3, Population = 31.
--0---00-2-10---------01---21-1---023--0
-0-0-01-----10-0-------000-1--00--1-1-0-

Generation = 6, Population = 36.
-----1-1---2---0-0-0123--2-32--024---0-0
0--111---2---1100-0----0---2-013-32--00-

Generation = 9, Population = 31.
-00---0--20--------3-2------5-2---12-1-1
0-0----12-0--2-13---22----03---4-35031--

Generation = 12, Population = 34.
---3-------4-00--11313-2--5-5-----225412
1-1-2-3--41-----6--1---1--3-22-41-6---4-

Generation = 15, Population = 38.
--0-0-0106--1-3102-6-653--63-0--4-22652-
-1-2--3-------3-7---42-42---2-1--67-3---

Generation = 18, Population = 36.
-2-3-3-10-0-124115-73-633-----3---32-5--
1--2-3---6----4--2----1456--2--7-97--1--

*** Life<FredkinCell> 39x48 ***

Generation = 0, Population = 13.
------------------------------0-----------------
-------------------------0----------------------
------------------------------------------------
---------------------------0--------------------
------------------------------------------------
------------------------------------------------
------------------------------------------------
------------------------------------------------
------------------------------------------------
---------------------0--------------------------
----------0-------------------------------------
------------------------------------------------
------------------------------------------------
----------------------------------------------0-
------------------------------------------------
------------------------------------------------
------------------------------------------------
------------------------------------------------
------------------------------------------------
------------------------------------------------
------------------------------------------------
------------------------------------------------
------------------------------------------------
------0-----------------------------------------
------------------------------------------------
------------------------------------------------
------------------------------------------------
-----------------------0------------------------
------------------------------------------------
------------------------------------------------
---------------0----------------------------0---
------------------------------------------------
------------------------------------------------
------------------------------------------------
-------------0----------------------------------
------------------------------------------------
-----------------------------0------------------
------------------------------------------------
--------------------------------0---------------

Generation = 11, Population = 448.
---------0-0---0-------0-0-0---0---0-----0------
--------0-0-0-0-0-0---0---0-0-0-0---0---0-------
-------0-0-0-0-0---0-0-----0-0-0-------0------0-
--------0-0-0---------0-----0-------0--------0-0
---------0-0-------0---0-------0---0-0------0-0-
----------0-------0-0-0-0---0---0-0-0------0-0--
-------------0-----0---0---0-0---0-0--------0-0-
--0---------0-0---0---------0-0--------------0-0
-0-0-------0-0-0-0-0---0-----0-0-0------------0-
0-0-0-----0-0-0---0-0-0-0-0---0-----------------
-0-0-0-----0-0---0-0-0-0---0-0--------0---0-----
0-0-0-------0-0-0-0-0---------0------0-0-0-0----
-0-0--0------0---0-0-------0--------0-0---0-0---
--0--0-0----------0-------0-0------0-0-----0-0--
----0-0-0------------0-----0--------0-0---0-0---
---0-0-0-00---------0-0--------------0-0-0-0----
----0-0-00-0-------0-0----------------0---0-----
-----0-00-0-0-----0-0---------------------------
------00-0-0-0-----0-----0--------------------0-
--------0-0-0--0--------0-0-----------------00-0
0--------0-0----0------0-0-----------------0100-
-0--------0------0----0-0-----------------00200-
--0---------------0----0-----------------0-00020
---0-------0-0----------------------------0-0010
--0-----------01---------------0-----------0-00-
-0---------0--110------------00-0-----------0---
0---------0-00-201----------0100-0--------------
-------0---002010-0----0---00200--0-0-------0---
--------0---0100-0----0-0-0-010-1--0-0-----0-0--
---------0---00-0----0-0-0-0-0-10---0-0---0-0-0-
----------0----0----0-0-0-0-0110-0---0-0-0-0-0-0
---0-0-----------------0-0--------0-0-0---0-0-0-
------0-------------0--10---011------0-----0-0--
---0---0-----0-----0--0-0--0-000--0-00------0---
--0-0---0---0-0---0--1-2000-0-1121--0-0---------
---0-0-0---0-0------0-0---00-0-00--0-0-00---0---
----0-0---0-0-----0--1--1---0-0---2-1-0110-0-0--
-----0-----0---0-0-0---10-0--0-----0-000------0-
--------------0---0-0110---1--------011--0-0---0

*** Life<FredkinCell> 30x14 ***

Generation = 0, Population = 21.
-------0------
------0-------
---0----------
--------------
--------------
----0---------
0----0--------
--------------
--------------
--------------
-------------0
------------0-
---0----------
--------0-----
--------------
--------------
-------00-----
--------------
---------0----
--0-----------
------------0-
----0---------
--------------
------------00
--------------
---0----------
-------------0
---------0----
--------------
--------------

Generation = 10, Population = 156.
--0--0-0-----0
3-----0-----0-
20-------0-0-0
1-0-1-0-0-0-0-
-0-0--101--0--
0-----4-2---0-
---2323--100-0
--0-----0---0-
-0-0-0--110--0
--0-----------
-0------32--0-
--1-0-1---0-1-
10-0-1-0--1--1
3---0---2-1-21
--0----2---0-1
0--0------0101
-11--3----0--2
-1--20---00--2
1---2---11--2-
---0--00--23--
--0--1----20--
0---1001210-1-
---01--1------
-----3-10-142-
------11--1--3
--102---23---3
---0-0-103--13
12---1-----21-
-----0-0-10--0
-0-11-0---0-2-

*** Life<FredkinCell> 4x2 ***

Generation = 0, Population = 8.
00
00
00
00

*** Life<FredkinCell> 33x18 ***

Generation = 0, Population = 26.
------------------
-0---0------------
------------------
------------------
--------0---------
----------0----0--
----0----------0--
0---------------0-
0-----------------
-------0----------
0-----------------
------------------
-------------0-0--
0-----------------
-------------0--0-
-----0------------
--0---------------
-----------------0
------------------
------------------
------------------
------------------
------------------
-----------------0
-----------------0
------------------
-------------0----
----------0-------
-----0------------
---------0--------
------------------
------------------
------------------

*** Life<FredkinCell> 7x10 ***

Generation = 0, Population = 21.
-000----0-
-------0-0
------0-0-
0-0----0-0
-0-0--00-0
------0--0
---0--0---

Generation = 14, Population = 33.
--4-4-3-2-
--------24
11-55--035
-5-3-28--5
-3-52--2--
--32--224-
--5-4636-7

