24

12 26
10
9 17
8 11
4 16
9 16
5 24
7 14
7 25
7 10
3 14
9 5
157 67

12 2
20
6 1
8 0
8 1
3 1
7 0
0 0
5 0
11 1
5 0
4 0
11 1
9 0
1 1
1 1
4 1
9 1
2 1
10 1
10 0
11 0
30 158

28 20
25
26 18
2 0
0 5
24 18
18 2
6 0
17 14
23 9
16 2
24 18
26 7
3 12
26 17
2 2
15 9
17 15
25 6
8 10
17 6
16 3
16 7
8 9
13 1
1 14
5 11
56 137

11 3
13
4 0
2 1
5 1
8 2
5 2
6 2
1 1
8 1
7 1
8 0
1 2
0 1
3 1
15 152

15 5
4
4 2
12 2
5 2
10 1
24 165

19 29
11
15 24
3 19
5 9
0 7
16 24
2 2
17 9
7 8
3 9
2 6
7 12
189 155

1 14
26
0 13
0 8
0 6
0 9
0 2
0 3
0 11
0 0
0 8
0 10
0 7
0 3
0 3
0 0
0 7
0 3
0 0
0 6
0 7
0 6
0 8
0 7
0 8
0 5
0 3
0 0
43 59

3 2
9
2 1
2 1
2 1
1 0
0 0
2 1
0 0
2 1
0 1
3 163

23 1
24
17 0
2 0
9 0
2 0
8 0
0 0
5 0
21 0
14 0
7 0
22 0
11 0
13 0
17 0
5 0
6 0
8 0
7 0
17 0
7 0
3 0
8 0
20 0
9 0
184 27

30 28
14
11 13
13 14
25 16
1 25
16 13
27 1
26 10
4 9
23 1
20 9
13 13
15 14
3 20
29 18
187 101

6 14
26
4 8
0 3
1 8
0 2
4 7
1 8
5 3
4 13
4 0
1 8
0 10
1 3
3 9
5 0
5 6
1 11
4 10
1 5
1 0
3 5
2 7
0 1
4 2
1 2
5 4
2 6
125 148

28 1
29
4 0
7 0
11 0
5 0
27 0
22 0
19 0
26 0
8 0
14 0
14 0
25 0
17 0
27 0
22 0
21 0
13 0
4 0
3 0
21 0
2 0
1 0
0 0
11 0
10 0
18 0
23 0
23 0
0 0
191 137

6 10
10
0 4
4 9
2 2
2 7
1 5
4 0
0 9
0 7
4 0
5 8
89 25

14 5
28
8 2
5 4
6 2
7 4
9 1
1 3
9 2
7 1
5 2
9 4
11 0
2 4
8 1
10 1
12 4
10 3
3 4
11 1
8 3
3 2
8 2
7 3
1 4
5 2
5 1
11 3
11 0
3 1
129 77

21 25
16
6 0
5 19
8 21
19 19
15 10
6 24
8 24
6 18
6 7
6 7
14 4
10 18
12 3
9 11
10 7
17 17
55 132

26 29
1
8 26
190 169

13 27
14
7 16
6 19
6 15
1 17
10 13
7 25
10 5
4 12
6 13
12 5
12 17
11 18
7 13
2 11
20 169

22 29
23
3 22
19 27
14 20
19 6
17 2
5 10
20 19
21 18
9 22
12 11
7 10
15 3
6 20
13 3
6 9
2 14
9 26
12 6
13 12
7 19
13 9
2 19
7 14
190 114

22 3
14
2 2
8 1
14 1
0 1
20 2
18 1
6 1
7 1
0 1
16 2
5 0
15 2
11 2
5 1
43 139

16 23
10
7 18
10 20
11 10
6 17
4 16
2 12
10 2
14 18
13 20
8 5
18 103

12 9
15
1 5
5 3
4 8
2 2
6 7
6 0
11 0
4 6
8 6
11 6
10 7
7 3
5 3
5 8
10 6
76 147

27 21
15
24 17
5 11
3 19
11 4
15 19
21 7
13 9
17 2
3 13
24 17
12 11
26 9
17 4
20 7
9 16
178 147

21 11
8
17 1
0 5
18 8
14 10
8 0
0 1
19 0
15 2
97 112

2 13
20
1 7
0 1
1 9
0 0
0 4
0 7
0 6
0 12
0 7
1 12
1 0
1 5
0 6
1 7
1 5
0 9
0 1
1 6
1 11
0 2
96 28
